{  
   "id":"831bc59b-eece-42d5-a4cd-757236752368",
   "children":[  
      {  
         "instance":{  
            "attributes":{  
               "additionele_informatie":"<p style=\"text-align: justify; font-size: 11px; line-height: 14px; margin: 0px 0px 14px; padding: 0px; font-family: Arial, Helvetica, sans;\">Lorem ipsum dolor sit amet, consectetur adipiscing elit. Nullam eu nisi sodales, malesuada odio ut, finibus dolor. Vivamus auctor tortor ac est vestibulum ornare. Duis sed urna cursus, egestas leo ut, lobortis tellus. Nullam quis euismod justo, nec venenatis risus. Etiam eget semper urna. Fusce vel venenatis eros. Maecenas a tincidunt urna. Maecenas blandit ipsum lorem, in tristique augue ullamcorper vitae. Sed eu risus molestie, viverra leo non, varius quam. Nunc nec libero eu enim semper euismod. Nam lorem purus, dapibus a scelerisque nec, tempus id dolor. Vestibulum in hendrerit est. Fusce vel elit ipsum. Aliquam faucibus leo suscipit, sodales nunc eu, tempor risus. Proin ultricies vel felis nec efficitur.</p><p style=\"text-align: justify; font-size: 11px; line-height: 14px; margin: 0px 0px 14px; padding: 0px; font-family: Arial, Helvetica, sans;\">In consectetur dapibus vulputate. Praesent nec lobortis mi, at sodales neque. Nullam nisi ex, tristique a ante in, ultrices congue mi. Sed viverra velit eget purus dapibus, a commodo nibh sodales. Donec dignissim ullamcorper tempus. Interdum et malesuada fames ac ante ipsum primis in faucibus. Praesent malesuada, massa ac ornare varius, velit orci ullamcorper arcu, elementum ornare tellus orci a dui. Sed id leo volutpat, venenatis enim vel, placerat leo. Donec lacinia, leo a tincidunt luctus, magna eros cursus mi, id laoreet eros diam vitae lorem.</p><p style=\"text-align: justify; font-size: 11px; line-height: 14px; margin: 0px 0px 14px; padding: 0px; font-family: Arial, Helvetica, sans;\">Integer lacus turpis, tempor ac blandit vitae, dapibus et quam. In ac ante odio. In at libero vitae elit elementum vehicula non ultricies tellus. Vestibulum ante ipsum primis in faucibus orci luctus et ultrices posuere cubilia Curae; Nam justo magna, consectetur a augue a, consequat pretium justo. Nulla aliquam ipsum in tellus scelerisque, nec lacinia nunc accumsan. Donec elementum neque vitae mauris luctus lobortis. Nunc commodo lorem ut lacus commodo, vel elementum arcu tempor. Integer dictum ullamcorper interdum. Nunc augue ligula, scelerisque a augue a, facilisis feugiat nulla. Vestibulum aliquet lectus metus, id tincidunt nunc ultricies a. Duis at risus viverra, consectetur nisi at, accumsan metus.</p><p style=\"text-align: justify; font-size: 11px; line-height: 14px; margin: 0px 0px 14px; padding: 0px; font-family: Arial, Helvetica, sans;\">Aliquam mauris lacus, pharetra vitae turpis at, aliquam porta erat. Etiam dictum egestas turpis. Morbi id hendrerit arcu. Morbi pretium lacus faucibus odio placerat, sed varius nulla pellentesque. Suspendisse congue sapien ut orci egestas, sed euismod risus placerat. Proin tristique arcu eget metus blandit, in luctus metus aliquet. Etiam interdum purus eu elit fringilla aliquet. Fusce viverra euismod faucibus.</p><p style=\"text-align: justify; font-size: 11px; line-height: 14px; margin: 0px 0px 14px; padding: 0px; font-family: Arial, Helvetica, sans;\">Proin ullamcorper quis lacus id ultricies. Integer justo dolor, porttitor sed bibendum at, maximus id erat. Suspendisse dapibus ornare augue sed posuere. Vestibulum rutrum, quam quis rhoncus finibus, tellus magna pulvinar ex, sed vulputate nisl ante a nisl. Nunc faucibus vestibulum egestas. In dignissim cursus risus auctor malesuada. Mauris et odio vel nibh congue posuere vitae ac sapien. In ultrices congue eros, porta semper lacus.</p>",
               "afdeling":"Stadsreiniging",
               "omschrijving":"Een leuke omschrijving voor een mooie concepttekst",
               "portefeuillehouder1":"Jemoeder",
               "$index":1
            },
            "casetype":{  
               "instance":{  
                  "name":"Voorstel"
               },
               "reference":"c79fb00d-2ea0-4fbf-b821-d3b2239f4b3d",
               "type":"casetype"
            },
            "child_relations":{  
               "instance":{  
                  "rows":[  

                  ]
               },
               "type":"set"
            },
            "date_of_registration":"2015-12-08T13:11:59Z",
            "date_target":"2016-01-07T13:11:59Z",
            "id":"f02e22d4-00ed-4903-943f-a6935458ac8c",
            "number":29,
            "parent_relation":{  

            },
            "phase":"Afhandelen",
            "relations":{  
               "instance":{  
                  "rows":[  
                     {  
                        "reference":"072affbd-7090-4b65-a4d8-cb31f8d20b72",
                        "type":"case"
                     },
                     {  
                        "reference":"831bc59b-eece-42d5-a4cd-757236752368",
                        "type":"case"
                     },
                     {  
                        "reference":"ffca87b4-cb86-4567-b783-3c10424c3229",
                        "type":"case"
                     }
                  ]
               },
               "type":"set"
            },
            "result":null,
            "status":"open",
            "subject_external":null
         },
         "reference":"f02e22d4-00ed-4903-943f-a6935458ac8c",
         "type":"case"
      }
   ],
   "instance":{  
      "attributes":{  
         "vergadering_datum":[  
            "2015-11-12T00:00:00Z"
         ],
         "vergadering_locatie":[  
            "Testlocatie"
         ],
         "vergadering_tijd":[  
            "19:00"
         ],
         "vergadering_titel1":[  
            "Testvergadering"
         ],
         "vergadering_voorzitter":[  
            "Testvoorzitter"
         ]
      },
      "casetype":{  
         "instance":{  
            "name":"Vergadering"
         },
         "reference":"7dd28416-bc89-4185-aabb-5555fd6aa9ce",
         "type":"casetype"
      },
      "child_relations":{  
         "instance":{  
            "rows":[  

            ]
         },
         "type":"set"
      },
      "date_of_registration":"2015-12-09T09:16:20Z",
      "date_target":"2016-01-08T09:16:20Z",
      "id":"831bc59b-eece-42d5-a4cd-757236752368",
      "number":30,
      "parent_relation":{  

      },
      "phase":"Afhandelen",
      "relations":{  
         "instance":{  
            "rows":[  
               {  
                  "reference":"f02e22d4-00ed-4903-943f-a6935458ac8c",
                  "type":"case"
               }
            ]
         },
         "type":"set"
      },
      "result":null,
      "status":"open",
      "subject_external":null
   },
   "reference":"831bc59b-eece-42d5-a4cd-757236752368",
   "type":"case",
   "date":"2015-11-12T00:00:00Z",
   "time":"19:00",
   "label":"Testvergadering",
   "location":"Testlocatie",
   "chairman":"Testvoorzitter"
}
